2 C.elegans plate experiment | Data sciences portfolio Pedro de Bos
…
#Transforming expType and compName into a factor variable

levels_exptype<-unique(Celegans_data_select$expType) #storing all exptype levels
Celegans_data_select$expType<-factor(Celegans_data_select$expType, levels = levels_exptype) #Transforming exptype
levels_compname<-unique(Celegans_data_select$compName) #Storing all compName levels
Celegans_data_select$compName<-factor(Celegans_data_select$compName, levels = levels_compname) #Transforming compName into factor

#Re-loading the
Celegans_data<-Celegans_data_select

#Checking if transformation went properly
Celegans_data

## # A tibble: 360 x 4
##    expType    compName                   RawData compConcentration
##    <fct>      <fct>                        <dbl>             <dbl>
##  1 experiment 2,6-diisopropylnaphthalene      44              4.99
##  2 experiment 2,6-diisopropylnaphthalene      37              4.99
##  3 experiment 2,6-diisopropylnaphthalene      45              4.99
##  4 experiment 2,6-diisopropylnaphthalene      47              4.99
##  5 experiment 2,6-diisopropylnaphthalene      41              4.99
##  6 experiment 2,6-diisopropylnaphthalene      35              4.99
##  7 experiment 2,6-diisopropylnaphthalene      41              4.99
##  8 experiment 2,6-diisopropylnaphthalene      36              4.99
##  9 experiment 2,6-diisopropylnaphthalene      40              4.99
## 10 experiment 2,6-diisopropylnaphthalene      38              4.99
## # ... with 350 more rows
…
